Data Wrangling: Homework 12
…
torgersen_penguins <- read_excel("penguins.xlsx",
sheet = "Torgersen Island", na = "NA") %>%
  clean_names()

biscoe_penguins <- read_excel("penguins.xlsx",
sheet = "Biscoe Island", na = "NA") %>%
  clean_names()

dream_penguins <- read_excel("penguins.xlsx",
sheet = "Dream Island", na = "NA") %>%
  clean_names

torgersen_penguins

## # A tibble: 52 × 8
##    species island    bill_length_mm bill_depth_mm flipper_length_mm body_mass_g
##    <chr>   <chr>              <dbl>         <dbl>             <dbl>       <dbl>
##  1 Adelie  Torgersen           39.1          18.7               181        3750
##  2 Adelie  Torgersen           39.5          17.4               186        3800
##  3 Adelie  Torgersen           40.3          18                 195        3250
##  4 Adelie  Torgersen           NA            NA                  NA          NA
##  5 Adelie  Torgersen           36.7          19.3               193        3450
##  6 Adelie  Torgersen           39.3          20.6               190        3650
##  7 Adelie  Torgersen           38.9          17.8               181        3625
##  8 Adelie  Torgersen           39.2          19.6               195        4675
##  9 Adelie  Torgersen           34.1          18.1               193        3475
## 10 Adelie  Torgersen           42            20.2               190        4250
## # ℹ 42 more rows
## # ℹ 2 more variables: sex <chr>, year <dbl>

biscoe_penguins

## # A tibble: 168 × 8
##    species island bill_length_mm bill_depth_mm flipper_length_mm body_mass_g
##    <chr>   <chr>           <dbl>         <dbl>             <dbl>       <dbl>
##  1 Adelie  Biscoe           37.8          18.3               174        3400
##  2 Adelie  Biscoe           37.7          18.7               180        3600
##  3 Adelie  Biscoe           35.9          19.2               189        3800
##  4 Adelie  Biscoe           38.2          18.1               185        3950
##  5 Adelie  Biscoe           38.8          17.2               180        3800
##  6 Adelie  Biscoe           35.3          18.9               187        3800
##  7 Adelie  Biscoe           40.6          18.6               183        3550
##  8 Adelie  Biscoe           40.5          17.9               187        3200
##  9 Adelie  Biscoe           37.9          18.6               172        3150
## 10 Adelie  Biscoe           40.5          18.9               180        3950
## # ℹ 158 more rows
## # ℹ 2 more variables: sex <chr>, year <dbl>

dream_penguins

## # A tibble: 124 × 8
##    species island bill_length_mm bill_depth_mm flipper_length_mm body_mass_g
##    <chr>   <chr>           <dbl>         <dbl>             <dbl>       <dbl>
##  1 Adelie  Dream            39.5          16.7               178        3250
##  2 Adelie  Dream            37.2          18.1               178        3900
##  3 Adelie  Dream            39.5          17.8               188        3300
##  4 Adelie  Dream            40.9          18.9               184        3900
##  5 Adelie  Dream            36.4          17                 195        3325
##  6 Adelie  Dream            39.2          21.1               196        4150
##  7 Adelie  Dream            38.8          20                 190        3950
##  8 Adelie  Dream            42.2          18.5               180        3550
##  9 Adelie  Dream            37.6          19.3               181        3300
## 10 Adelie  Dream            39.8          19.1               184        4650
## # ℹ 114 more rows
## # ℹ 2 more variables: sex <chr>, year <dbl>

1

Stacked Dataset

stacked_data <- bind_rows(
  torgersen_penguins, biscoe_penguins, dream_penguins
)
stacked_data

## # A tibble: 344 × 8
##    species island    bill_length_mm bill_depth_mm flipper_length_mm body_mass_g
##    <chr>   <chr>              <dbl>         <dbl>             <dbl>       <dbl>
##  1 Adelie  Torgersen           39.1          18.7               181        3750
##  2 Adelie  Torgersen           39.5          17.4               186        3800
##  3 Adelie  Torgersen           40.3          18                 195        3250
##  4 Adelie  Torgersen           NA            NA                  NA          NA
##  5 Adelie  Torgersen           36.7          19.3               193        3450
##  6 Adelie  Torgersen           39.3          20.6               190        3650
##  7 Adelie  Torgersen           38.9          17.8               181        3625
##  8 Adelie  Torgersen           39.2          19.6               195        4675
##  9 Adelie  Torgersen           34.1          18.1               193        3475
## 10 Adelie  Torgersen           42            20.2               190        4250
## # ℹ 334 more rows
## # ℹ 2 more variables: sex <chr>, year <dbl>
…
